test3.vcd
$date
    Wed 6 14 15:11:52 (GMT+9) 2023
$end
$version
    lambda Schematic 0.0
$end
$timescale
    1ns
$end
$scope module tb $end
$upscope $end
$var reg 1 e o1 $end
$var reg 1 d i1 $end
$var reg 1 c o0 $end
$var reg 1 b i0 $end
$var reg 1 a clk $end
$enddefinitions $end
$dumpvars
#0
0a
#0
0b
#0
1c
#0
1d
#0
0e
#5
1a
#5
1e
#5
0c
#10
0a
#15
1a
#17
1b
#17
0d
#20
0a
#25
1a
#25
0e
#25
1c
